{
	"rulesDirectory": [
		"node_modules/codelyzer"
	],
	"rules": {
		"class-name": true,
		"comment-format": [
			true,
			"check-space"
		],
		"component-selector": [
			true,
			["element", "attribute"],
			"app",
			"kebab-case"
		],
		"indent": [
			true,
			"tabs"
		],
		"no-duplicate-variable": true,
		"no-eval": true,
		"no-internal-module": true,
		"no-trailing-whitespace": true,
		"no-var-keyword": true,
		"one-line": [
			true,
			"check-open-brace",
			"check-whitespace"
		],
		"quotemark": [
			true,
			"single"
		],
		"semicolon": [
			true,
			"always"
		],
		"triple-equals": [
			true,
			"allow-null-check"
		],
		"typedef": [
			true,
			"call-signature",
			"parameter",
			"member-variable-declaration"
		],
		"typedef-whitespace": [
			true,
			{
				"call-signature": "nospace",
				"index-signature": "nospace",
				"parameter": "nospace",
				"property-declaration": "nospace",
				"variable-declaration": "nospace"
			}
		],
		"variable-name": [
			true,
			"ban-keywords"
		],
		"whitespace": [
			true,
			"check-branch",
			"check-decl",
			"check-operator",
			"check-separator",
			"check-type"
		],
		"trailing-comma": [
			true,
			{
				"multiline": "always",
				"singleline": "never"
			}
		]
	}
}
